…
```{r eval=FALSE}
ratings_db %>% 
  select(ends_with("Id")) %>% 
  filter(movieId < 100) %>% 
  collect()
```

```{r eval=FALSE}
# A tibble: 790,226 x 2
   userId movieId
    <int>   <int>
 1      1       2
 2      1      29
 3      1      32
 4      1      47
 5      1      50
 6      2       3
 7      2      62
 8      2      70
 9      3       1
10      3      24
# ... with 790,216 more rows
```
…
